Exploring specimen collections data in Butte County, California | Recology
…
note: there’s definitely points that fall outside of Butte County, but we’ll ignore those for simplicity sake

What’s the taxonomic breakdown like?

library(dplyr)
df <- res$idigbio$data$custom_query
(x <- df %>% 
    group_by(class) %>% 
    summarise(n = n()) %>% 
    arrange(desc(n)))
#> # A tibble: 42 x 2
#>    class              n
#>    <chr>          <int>
#>  1 magnoliopsida  25449
#>  2 liliopsida      9174
#>  3 <NA>            6355
#>  4 insecta         1490
#>  5 polypodiopsida   891
#>  6 pinopsida        351
#>  7 aves             283
#>  8 bryopsida        255
#>  9 lycopodiopsida   161
#> 10 equisetopsida     99
#> # ... with 32 more rows
…
Collectors. Lowell Ahart is kind of a legend in Butte County, collecting plants like crazy. Let’s see how many records he has

df %>% filter(grepl("ahart", collector, ignore.case = TRUE))
#> # A tibble: 15,864 x 83
#>    associatedsequenc… barcodevalue basisofrecord   bed   canonicalname    
#>    <lgl>              <lgl>        <chr>           <lgl> <chr>            
#>  1 NA                 NA           preservedspeci… NA    isolepis setacea 
#>  2 NA                 NA           preservedspeci… NA    fallopia convolv…
#>  3 NA                 NA           preservedspeci… NA    carex densa      
#>  4 NA                 NA           preservedspeci… NA    datura wrightii  
#>  5 NA                 NA           preservedspeci… NA    hieracium argutum
#>  6 NA                 NA           preservedspeci… NA    centunculus mini…
#>  7 NA                 NA           preservedspeci… NA    dryopteris arguta
#>  8 NA                 NA           preservedspeci… NA    epilobium cleist…
#>  9 NA                 NA           preservedspeci… NA    psilocarphus ten…
#> 10 NA                 NA           preservedspeci… NA    lycium barbarum  
#> # ... with 15,854 more rows, and 78 more variables: catalognumber <chr>,
#> #   class <chr>, collectioncode <chr>, collectionid <chr>,
#> #   collectionname <lgl>, collector <chr>, commonname <chr>,
#> #   commonnames <list>, continent <chr>, coordinateuncertainty <dbl>,
#> #   country <chr>, countrycode <chr>, county <chr>, datasetid <chr>,
#> #   datecollected <date>, datemodified <chr>, dqs <dbl>,
#> #   earliestageorloweststage <lgl>, earliesteonorlowesteonothem <lgl>,
#> #   earliestepochorlowestseries <chr>, earliesteraorlowesterathem <lgl>,
#> #   earliestperiodorlowestsystem <chr>, etag <chr>, eventdate <chr>,
…
