text mining, apis, and parsing api logs | Recology
…
      space, space, "HTTP/", numbers, ".", numbers, space,

      capture(name = "status_code",
        one_or_more(numbers)
      )
    )
  ))
df$route <- as.numeric(df$route)
df
#> # A tibble: 896,035 x 2
#>    route status_code
#>    <dbl> <chr>      
#>  1    NA <NA>       
#>  2   317 200        
#>  3    19 400        
#>  4  2308 400        
#>  5   239 400        
#>  6  2581 400        
#>  7    27 400        
#>  8   297 200        
#>  9  7995 400        
#> 10    NA <NA>       
#> # … with 896,025 more rows

Filter to those requests that resulted in a 400 HTTP status code, that is, they
resulted in no returned data, indicating that we likely do not have a mapping for that
Crossref member.

res <- df %>%
  filter(status_code == 400) %>%
  select(route) %>% 
  group_by(route) %>%
  summarize(count = n()) %>% 
  arrange(desc(count))
res
#> # A tibble: 530 x 2
#>    route  count
#>    <dbl>  <int>
#>  1    10 345045
#>  2   530   7165
#>  3   286   3062
#>  4   276   2975
#>  5   239   2493
#>  6  8611   1085
#>  7    56    853
#>  8   235    722
#>  9   382    706
#> 10   175    590
#> # … with 520 more rows

Add crossref metadata

(members <- cr_members(res$route))
#> $meta
#> NULL
#> 
#> $data
#> # A tibble: 530 x 56
#>       id primary_name location last_status_che… total.dois current.dois
#>    <int> <chr>        <chr>    <date>           <chr>      <chr>       
#>  1    10 American Me… 330 N. … 2019-03-20       600092     14714       
#>  2   530 FapUNIFESP … FAP-UNI… 2019-03-20       353338     38339       
#>  3   286 Oxford Univ… Academi… 2019-03-20       3696643    289338      
#>  4   276 Ovid Techno… 100 Riv… 2019-03-20       2059352    167272      
#>  5   239 BMJ          BMA Hou… 2019-03-20       891239     61267       
#>  6  8611 AME Publish… c/o NAN… 2019-03-20       20067      15666       
#>  7    56 Cambridge U… The Edi… 2019-03-20       1529029    84018       
#>  8   235 American So… 1752 N … 2019-03-20       178890     13984       
#>  9   382 Joule Inc.   1031 Ba… 2019-03-20       12666      1868        
#> 10   175 The Royal S… 6 Carlt… 2019-03-20       89219      7262        
#> # … with 520 more rows, and 50 more variables: backfile.dois <chr>,
#> #   prefixes <chr>, coverge.affiliations.current <chr>,
#> #   coverge.similarity.checking.current <chr>,
#> #   coverge.funders.backfile <chr>, coverge.licenses.backfile <chr>,
#> #   coverge.funders.current <chr>, coverge.affiliations.backfile <chr>,
#> #   coverge.resource.links.backfile <chr>, coverge.orcids.backfile <chr>,
#> #   coverge.update.policies.current <chr>,
#> #   coverge.open.references.backfile <chr>, coverge.orcids.current <chr>,
#> #   coverge.similarity.checking.backfile <chr>,
…
Add Crossref member names to the log data.

alldat <- left_join(res, select(members$data, id, primary_name),
  by = c("route" = "id"))
alldat
#> # A tibble: 530 x 3
#>    route  count primary_name                             
#>    <dbl>  <int> <chr>                                    
#>  1    10 345045 American Medical Association (AMA)       
#>  2   530   7165 FapUNIFESP (SciELO)                      
#>  3   286   3062 Oxford University Press (OUP)            
#>  4   276   2975 Ovid Technologies (Wolters Kluwer Health)
#>  5   239   2493 BMJ                                      
#>  6  8611   1085 AME Publishing Company                   
#>  7    56    853 Cambridge University Press (CUP)         
#>  8   235    722 American Society for Microbiology        
#>  9   382    706 Joule Inc.                               
#> 10   175    590 The Royal Society                        
#> # … with 520 more rows
…
