…
Bind data together to single dataframe, and filter, summarise

    data <- bind_rows(dat, .id = "episode") %>%
      filter(!is.na(episode)) %>%
      filter(grepl("^PJ$|^ALEX GOLDMAN$", name)) %>%
      mutate(ep_no = as.numeric(strextract(episode, "^[0-9]+"))) %>%
      group_by(ep_no) %>%
      mutate(nrow = NROW(ep_no)) %>%
      ungroup() %>%
      filter(nrow == 2)
    data
    #> # A tibble: 114 × 8
    #>                 episode         name     n      mean n_laugh n_groan ep_no
    #>                   <chr>        <chr> <int>     <dbl>   <int>   <int> <dbl>
    #> 1            73-sandbox           PJ    89 130.65169       9       0    73
    #> 2            73-sandbox ALEX GOLDMAN    25  44.00000       1       1    73
    #> 3       72-dead-is-paul           PJ   137  67.77372      17       0    72
    #> 4       72-dead-is-paul ALEX GOLDMAN    90  61.82222       8       0    72
    #> 5  71-the-picture-taker           PJ    74  77.70270       3       0    71
    #> 6  71-the-picture-taker ALEX GOLDMAN    93 105.94624       6       0    71
    #> 7        69-disappeared           PJ    72  76.50000       2       0    69
    #> 8        69-disappeared ALEX GOLDMAN    50 135.90000       5       0    69
    #> 9      68-vampire-rules           PJ   142  88.00704       6       0    68
    #> 10     68-vampire-rules ALEX GOLDMAN   117  73.16239      13       0    68
    #> # ... with 104 more rows, and 1 more variables: nrow <int>
…
Combine to single data\_frame

    (wordz_df <- bind_rows(wordz, .id = "episode"))
    #> # A tibble: 104,713 × 3
    #>       episode  name      word
    #>         <chr> <chr>     <chr>
    #> 1  73-sandbox  Alex      alex
    #> 2  73-sandbox  Alex   goldman
    #> 3  73-sandbox  Alex         i
    #> 4  73-sandbox  Alex generally
    #> 5  73-sandbox  Alex     don’t
    #> 6  73-sandbox  Alex      alex
    #> 7  73-sandbox  Alex    really
    #> 8  73-sandbox  Alex      alex
    #> 9  73-sandbox  Alex    groans
    #> 10 73-sandbox  Alex        so
    #> # ... with 104,703 more rows
…
    bing <- sentiments %>%
      filter(lexicon == "bing") %>%
      select(-score)
    sent <- wordz_df %>%
      inner_join(bing) %>%
      count(name, episode, sentiment) %>%
      spread(sentiment, n, fill = 0) %>%
      mutate(sentiment = positive - negative) %>%
      ungroup() %>%
      filter(!is.na(episode)) %>%
      complete(episode, name) %>%
      mutate(ep_no = as.numeric(strextract(episode, "^[0-9]+")))
    sent
    #> # A tibble: 148 × 6
    #>                                        episode  name negative positive
    #>                                          <chr> <chr>    <dbl>    <dbl>
    #> 1  1-an-app-sends-a-stranger-to-say-i-love-you  Alex       19       30
    #> 2  1-an-app-sends-a-stranger-to-say-i-love-you    PJ       14       14
    #> 3                         10-french-connection  Alex       15       32
    #> 4                         10-french-connection    PJ       16       36
    #> 5     11-did-errol-morris-brother-invent-email  Alex       NA       NA
    #> 6     11-did-errol-morris-brother-invent-email    PJ       25       30
    #> 7                           12-backend-trouble  Alex       20       15
    #> 8                           12-backend-trouble    PJ       40       59
    #> 9                              13-love-is-lies  Alex       NA       NA
    #> 10                             13-love-is-lies    PJ       45       64
    #> # ... with 138 more rows, and 2 more variables: sentiment <dbl>,
    #> #   ep_no <dbl>
…
