Recology, R/etc.
…
Bind data together to single dataframe, and filter, summarise

    data <- bind_rows(dat, .id = "episode") %>%
      filter(!is.na(episode)) %>%
      filter(grepl("^PJ$|^ALEX GOLDMAN$", name)) %>%
      mutate(ep_no = as.numeric(strextract(episode, "^[0-9]+"))) %>%
      group_by(ep_no) %>%
      mutate(nrow = NROW(ep_no)) %>%
      ungroup() %>%
      filter(nrow == 2)
    data
    #> # A tibble: 114 × 8
    #>                 episode         name     n      mean n_laugh n_groan ep_no
    #>                                        
    #> 1            73-sandbox           PJ    89 130.65169       9       0    73
    #> 2            73-sandbox ALEX GOLDMAN    25  44.00000       1       1    73
    #> 3       72-dead-is-paul           PJ   137  67.77372      17       0    72
    #> 4       72-dead-is-paul ALEX GOLDMAN    90  61.82222       8       0    72
    #> 5  71-the-picture-taker           PJ    74  77.70270       3       0    71
    #> 6  71-the-picture-taker ALEX GOLDMAN    93 105.94624       6       0    71
    #> 7        69-disappeared           PJ    72  76.50000       2       0    69
    #> 8        69-disappeared ALEX GOLDMAN    50 135.90000       5       0    69
    #> 9      68-vampire-rules           PJ   142  88.00704       6       0    68
    #> 10     68-vampire-rules ALEX GOLDMAN   117  73.16239      13       0    68
    #> # ... with 104 more rows, and 1 more variables: nrow 
…
Combine to single data\_frame

    (wordz_df <- bind_rows(wordz, .id = "episode"))
    #> # A tibble: 104,713 × 3
    #>       episode  name      word
    #>               
    #> 1  73-sandbox  Alex      alex
    #> 2  73-sandbox  Alex   goldman
    #> 3  73-sandbox  Alex         i
    #> 4  73-sandbox  Alex generally
    #> 5  73-sandbox  Alex     don’t
    #> 6  73-sandbox  Alex      alex
    #> 7  73-sandbox  Alex    really
    #> 8  73-sandbox  Alex      alex
    #> 9  73-sandbox  Alex    groans
    #> 10 73-sandbox  Alex        so
    #> # ... with 104,703 more rows
…
    bing <- sentiments %>%
      filter(lexicon == "bing") %>%
      select(-score)
    sent <- wordz_df %>%
      inner_join(bing) %>%
      count(name, episode, sentiment) %>%
      spread(sentiment, n, fill = 0) %>%
      mutate(sentiment = positive - negative) %>%
      ungroup() %>%
      filter(!is.na(episode)) %>%
      complete(episode, name) %>%
      mutate(ep_no = as.numeric(strextract(episode, "^[0-9]+")))
    sent
    #> # A tibble: 148 × 6
    #>                                        episode  name negative positive
    #>                                                   
    #> 1  1-an-app-sends-a-stranger-to-say-i-love-you  Alex       19       30
    #> 2  1-an-app-sends-a-stranger-to-say-i-love-you    PJ       14       14
    #> 3                         10-french-connection  Alex       15       32
    #> 4                         10-french-connection    PJ       16       36
    #> 5     11-did-errol-morris-brother-invent-email  Alex       NA       NA
    #> 6     11-did-errol-morris-brother-invent-email    PJ       25       30
    #> 7                           12-backend-trouble  Alex       20       15
    #> 8                           12-backend-trouble    PJ       40       59
    #> 9                              13-love-is-lies  Alex       NA       NA
    #> 10                             13-love-is-lies    PJ       45       64
    #> # ... with 138 more rows, and 2 more variables: sentiment ,
    #> #   ep_no 
…
## Get and search region names

```r
(res <- mr_names())
#> # A tibble: 676 x 4
#>                              name
#>                             
#> 1           Morocco:elevation_10m
#> 2          Emodnet:emodnet1x1grid
#> 3                    Emodnet:grid
#> 4                     Morocco:dam
#> 5             WoRMS:azmp_sections
#> 6    Morocco:accomodationcapacity
#> 7          Morocco:admin_boundary
#> 8  Lifewatch:ovam_afvalverwerking
#> 9          Eurobis:eurobis_points
#> 10                  Morocco:roads
#> # ... with 666 more rows, and 3 more variables: title ,
#> #   name_first , name_second 
…
```r
if (!requireNamespace("rgbif")) {
  install.packages("rgbif")
}
library("rgbif")
occ_search(geometry = mr_as_wkt(shp), limit = 400)
#> Records found [2395936] 
#> Records returned [400] 
#> No. unique hierarchies [17] 
#> No. media records [3] 
#> Args [geometry=POLYGON ((7.2083632399999997 53.2428091399999985,
#>      6.6974995100000001 53.4619365499999972, 5.89083650, limit=400,
#>      offset=0, fields=all] 
#> # A tibble: 400 x 102
#>                     name        key decimalLatitude decimalLongitude
#>                                                 
#> 1  Haematopus ostralegus 1265900666        52.13467          4.21306
#> 2          Limosa limosa 1265577408        53.03249          4.88665
#> 3       Corvus splendens 1269536058        51.98297          4.12982
#> 4       Corvus splendens 1269536065        51.98297          4.12982
#> 5       Lanius excubitor 1211320606        52.57223          4.62569
#> 6       Lanius excubitor 1211320862        52.67419          4.63645
#> 7       Lanius excubitor 1211320806        53.05790          4.72974
#> 8       Lanius excubitor 1211321040        52.57540          4.63651
#> 9       Lanius excubitor 1211320590        52.41180          5.19500
#> 10      Lanius excubitor 1211320401        52.57535          4.63654
#> # ... with 390 more rows, and 98 more variables: issues ,
#> #   datasetKey , publishingOrgKey , publishingCountry ,
#> #   protocol , lastCrawled , lastParsed , extensions ,
#> #   basisOfRecord , taxonKey , kingdomKey ,
#> #   phylumKey , classKey , orderKey , familyKey ,
#> #   genusKey , speciesKey , scientificName , kingdom ,
#> #   phylum , order , family , genus , species ,
#> #   genericName , specificEpithet , taxonRank ,
#> #   dateIdentified , coordinateUncertaintyInMeters , year ,
…
