…
## Get and search region names


```r
(res <- mr_names())
#> # A tibble: 676 x 4
#>                              name
#>                             <chr>
#> 1           Morocco:elevation_10m
#> 2          Emodnet:emodnet1x1grid
#> 3                    Emodnet:grid
#> 4                     Morocco:dam
#> 5             WoRMS:azmp_sections
#> 6    Morocco:accomodationcapacity
#> 7          Morocco:admin_boundary
#> 8  Lifewatch:ovam_afvalverwerking
#> 9          Eurobis:eurobis_points
#> 10                  Morocco:roads
#> # ... with 666 more rows, and 3 more variables: title <chr>,
#> #   name_first <chr>, name_second <chr>
…
```r
if (!requireNamespace("rgbif")) {
  install.packages("rgbif")
}
library("rgbif")
occ_search(geometry = mr_as_wkt(shp), limit = 400)
#> Records found [2395936]
#> Records returned [400]
#> No. unique hierarchies [17]
#> No. media records [3]
#> Args [geometry=POLYGON ((7.2083632399999997 53.2428091399999985,
#>      6.6974995100000001 53.4619365499999972, 5.89083650, limit=400,
#>      offset=0, fields=all]
#> # A tibble: 400 x 102
#>                     name        key decimalLatitude decimalLongitude
#>                    <chr>      <int>           <dbl>            <dbl>
#> 1  Haematopus ostralegus 1265900666        52.13467          4.21306
#> 2          Limosa limosa 1265577408        53.03249          4.88665
#> 3       Corvus splendens 1269536058        51.98297          4.12982
#> 4       Corvus splendens 1269536065        51.98297          4.12982
#> 5       Lanius excubitor 1211320606        52.57223          4.62569
#> 6       Lanius excubitor 1211320862        52.67419          4.63645
#> 7       Lanius excubitor 1211320806        53.05790          4.72974
#> 8       Lanius excubitor 1211321040        52.57540          4.63651
#> 9       Lanius excubitor 1211320590        52.41180          5.19500
#> 10      Lanius excubitor 1211320401        52.57535          4.63654
#> # ... with 390 more rows, and 98 more variables: issues <chr>,
#> #   datasetKey <chr>, publishingOrgKey <chr>, publishingCountry <chr>,
#> #   protocol <chr>, lastCrawled <chr>, lastParsed <chr>, extensions <chr>,
#> #   basisOfRecord <chr>, taxonKey <int>, kingdomKey <int>,
#> #   phylumKey <int>, classKey <int>, orderKey <int>, familyKey <int>,
#> #   genusKey <int>, speciesKey <int>, scientificName <chr>, kingdom <chr>,
#> #   phylum <chr>, order <chr>, family <chr>, genus <chr>, species <chr>,
#> #   genericName <chr>, specificEpithet <chr>, taxonRank <chr>,
#> #   dateIdentified <chr>, coordinateUncertaintyInMeters <dbl>, year <int>,
…
