…
- `isd_parse()` - Parse a NOAA ISD data file
- `isd_parse_line()` - Parse a single line of a NOAA ISD data file
- `isd_transform()` - Transform variables in output of `isd_parse()/isd_parse_line()`;
uses `isd_metadata`, a data.frame with metadata on units and scaling factors for
each variable

Read all lines in an ISD file


```r
library(isdparser)
path <- system.file('extdata/104270-99999-1928.gz', package = "isdparser")
isd_parse(path)
#> <path>/Library/Frameworks/R.framework/Versions/3.6/Resources/library/isdparser/extdata/104270-99999-1928.gz
#> # A tibble: 376 x 31
#>    total_chars usaf_station wban_station date  time  date_flag latitude
#>    <chr>       <chr>        <chr>        <chr> <chr> <chr>     <chr>   
#>  1 0076        104270       99999        1928… 0600  4         +51183  
#>  2 0067        104270       99999        1928… 0600  4         +51183  
#>  3 0067        104270       99999        1928… 0600  4         +51183  
#>  4 0089        104270       99999        1928… 0600  4         +51183  
#>  5 0067        104270       99999        1928… 0600  4         +51183  
#>  6 0043        104270       99999        1928… 1200  4         +51183  
#>  7 0085        104270       99999        1928… 0600  4         +51183  
#>  8 0056        104270       99999        1928… 1200  4         +51183  
#>  9 0050        104270       99999        1928… 0600  4         +51183  
#> 10 0037        104270       99999        1928… 1200  4         +51183  
#> # … with 366 more rows, and 24 more variables: longitude <chr>,
#> #   type_code <chr>, elevation <chr>, call_letter <chr>, quality <chr>,
#> #   wind_direction <chr>, wind_direction_quality <chr>, wind_code <chr>,
#> #   wind_speed <chr>, wind_speed_quality <chr>, ceiling_height <chr>,
#> #   ceiling_height_quality <chr>, ceiling_height_determination <chr>,
#> #   ceiling_height_cavok <chr>, visibility_distance <chr>, …
```
…
Gives 7 stations. The Sonoma County Airport station seems like a good one to use,
with data from 2000 up to January 2019.

Then download data from that station with `isd()`


```r
isd(usaf = 724957, wban = 23213, year = 2008)
#> <path>/Users/sckott/Library/Caches/rnoaa/isd/724957-23213-2008.gz
#> # A tibble: 12,482 x 436
#>    total_chars usaf_station wban_station date  time  date_flag latitude
#>    <chr>       <chr>        <chr>        <chr> <chr> <chr>     <chr>   
#>  1 0194        724957       23213        2008… 0053  7         +38509  
#>  2 0194        724957       23213        2008… 0153  7         +38509  
#>  3 0214        724957       23213        2008… 0253  7         +38509  
#>  4 0189        724957       23213        2008… 0353  7         +38509  
#>  5 0189        724957       23213        2008… 0453  7         +38509  
#>  6 0253        724957       23213        2008… 0553  7         +38509  
#>  7 0196        724957       23213        2008… 0653  7         +38509  
#>  8 0206        724957       23213        2008… 0753  7         +38509  
#>  9 1007        724957       23213        2008… 0759  6         +38509  
#> 10 1374        724957       23213        2008… 0759  6         +38509  
#> # … with 12,472 more rows, and 429 more variables: longitude <chr>,
#> #   type_code <chr>, elevation <chr>, call_letter <chr>, quality <chr>,
#> #   wind_direction <chr>, wind_direction_quality <chr>, wind_code <chr>,
#> #   wind_speed <chr>, wind_speed_quality <chr>, ceiling_height <chr>,
#> #   ceiling_height_quality <chr>, ceiling_height_determination <chr>,
#> #   ceiling_height_cavok <chr>, visibility_distance <chr>, …
```
…
